{ "height":8,
 "layers":[
        {
         "data":[1, 0, 0, 0, 0, 0, 1, 1, 1, 0, 0, 0, 0, 0, 5, 1, 1, 0, 0, 0, 0, 0, 0, 1, 1, 0, 0, 0, 0, 0, 0, 1, 1, 0, 0, 0, 0, 0, 0, 1, 1, 1, 0, 0, 0, 0, 0, 1, 1, 1, 1, 0, 0, 0, 0, 1, 1, 1, 1, 1, 1, 0, 0, 1],
         "height":8,
         "name":"Tile Layer 1",
         "opacity":1,
         "type":"tilelayer",
         "visible":true,
         "width":8,
         "x":0,
         "y":0
        }],
 "nextobjectid":1,
 "orientation":"orthogonal",
 "renderorder":"left-down",
 "tileheight":64,
 "tilesets":[
        {
         "columns":10,
         "firstgid":1,
         "image":"..\/..\/..\/extAssets\/img\/tileset.png",
         "imageheight":64,
         "imagewidth":640,
         "margin":0,
         "name":"tileset",
         "spacing":0,
         "tilecount":10,
         "tileheight":64,
         "tilewidth":64
        }],
 "tilewidth":64,
 "version":1,
 "width":8
}